// Hair genrated by blender2ogre 0.6.0

material Hair 
{
    receive_shadows on 

    technique
    {
        pass Hair
        {
            ambient 0.7584965229034424 0.6245646476745605 0.0697111114859581 1.0
            diffuse 0.6067972273647371 0.49965172558503923 0.05576889001978769 1.0
            specular 0.0 0.0 0.0 1.0 12.5
            emissive 0.0 0.0 0.0 1.0

            alpha_to_coverage off
            colour_write on
            cull_hardware clockwise
            depth_check on
            depth_func less_equal
            depth_write on
            illumination_stage 
            light_clip_planes off
            light_scissor off
            lighting on
            normalise_normals off
            polygon_mode solid
            scene_blend one zero
            scene_blend_op add
            shading gouraud
            transparent_sorting on

        }
    }
}
