// Material genrated by blender2ogre 0.6.0

material Material 
{
    receive_shadows on 

    technique
    {
        pass Material
        {
            ambient 0.8060622215270996 0.8275567293167114 0.0 1.0
            diffuse 0.1878042181080275 0.19281221764111223 0.0 1.0
            specular 0.5 0.5 0.5 1.0 28.75
            emissive 0.0 0.0 0.0 1.0

            alpha_to_coverage off
            colour_write on
            cull_hardware clockwise
            depth_check on
            depth_func less_equal
            depth_write on
            illumination_stage 
            light_clip_planes off
            light_scissor off
            lighting on
            normalise_normals off
            polygon_mode solid
            scene_blend one zero
            scene_blend_op add
            shading gouraud
            transparent_sorting on

        }
    }
}
